{
  "project_info": {
    "project_number": "339645345770",
    "project_id": "smart-selling-tools"
  },
  "client": [
    {
      "client_info": {
        "mobilesdk_app_id": "1:339645345770:android:838a38ea10acb336",
        "android_client_info": {
          "package_name": "com.nataproperty.android.nataproperty"
        }
      },
      "oauth_client": [
        {
          "client_id": "339645345770-sfsougl7r2j9ldogq68f5gj05kfjk1pp.apps.googleusercontent.com",
          "client_type": 1,
          "android_info": {
            "package_name": "com.nataproperty.android.nataproperty",
            "certificate_hash": "849331A789F9D26DD5A7276527554954DDED3089"
          }
        },
        {
          "client_id": "339645345770-p3nhh5fsikqoan9ram0r5fb0gr4cknna.apps.googleusercontent.com",
          "client_type": 3
        }
      ],
      "api_key": [
        {
          "current_key": "AIzaSyCit-vAz-sAOd37mPDDqRaeqAuKaMujkjI"
        }
      ],
      "services": {
        "analytics_service": {
          "status": 2,
          "analytics_property": {
            "tracking_id": "UA-82123863-1"
          }
        },
        "appinvite_service": {
          "status": 1,
          "other_platform_oauth_client": []
        },
        "ads_service": {
          "status": 1
        }
      }
    }
  ],
  "configuration_version": "1"
}